-- Merging decision tree log ---
manifest
ADDED from /Users/paulohenrique/Documents/ARQUIVOS/Projetos/2017/aplicativos/radicais_livres/app/react_native/android/app/src/main/AndroidManifest.xml:1:1-102:12
	package
		ADDED from /Users/paulohenrique/Documents/ARQUIVOS/Projetos/2017/aplicativos/radicais_livres/app/react_native/android/app/src/main/AndroidManifest.xml:2:5-33
		INJECTED from /Users/paulohenrique/Documents/ARQUIVOS/Projetos/2017/aplicativos/radicais_livres/app/react_native/android/app/src/main/AndroidManifest.xml
		INJECTED from /Users/paulohenrique/Documents/ARQUIVOS/Projetos/2017/aplicativos/radicais_livres/app/react_native/android/app/src/main/AndroidManifest.xml
	android:versionName
		ADDED from /Users/paulohenrique/Documents/ARQUIVOS/Projetos/2017/aplicativos/radicais_livres/app/react_native/android/app/src/main/AndroidManifest.xml:4:5-30
		INJECTED from /Users/paulohenrique/Documents/ARQUIVOS/Projetos/2017/aplicativos/radicais_livres/app/react_native/android/app/src/main/AndroidManifest.xml
		INJECTED from /Users/paulohenrique/Documents/ARQUIVOS/Projetos/2017/aplicativos/radicais_livres/app/react_native/android/app/src/main/AndroidManifest.xml
	android:versionCode
		ADDED from /Users/paulohenrique/Documents/ARQUIVOS/Projetos/2017/aplicativos/radicais_livres/app/react_native/android/app/src/main/AndroidManifest.xml:3:5-28
		INJECTED from /Users/paulohenrique/Documents/ARQUIVOS/Projetos/2017/aplicativos/radicais_livres/app/react_native/android/app/src/main/AndroidManifest.xml
		INJECTED from /Users/paulohenrique/Documents/ARQUIVOS/Projetos/2017/aplicativos/radicais_livres/app/react_native/android/app/src/main/AndroidManifest.xml
	xmlns:android
		ADDED from /Users/paulohenrique/Documents/ARQUIVOS/Projetos/2017/aplicativos/radicais_livres/app/react_native/android/app/src/main/AndroidManifest.xml:1:11-69
uses-permission#android.permission.INTERNET
ADDED from /Users/paulohenrique/Documents/ARQUIVOS/Projetos/2017/aplicativos/radicais_livres/app/react_native/android/app/src/main/AndroidManifest.xml:6:5-67
MERGED from [RadicaisLivres:RNGL:unspecified] /Users/paulohenrique/Documents/ARQUIVOS/Projetos/2017/aplicativos/radicais_livres/app/react_native/android/app/build/intermediates/exploded-aar/RadicaisLivres/RNGL/unspecified/AndroidManifest.xml:15:5-67
MERGED from [com.google.android.gms:play-services-gcm:11.0.0] /Users/paulohenrique/Documents/ARQUIVOS/Projetos/2017/aplicativos/radicais_livres/app/react_native/android/app/build/intermediates/exploded-aar/com.google.android.gms/play-services-gcm/11.0.0/AndroidManifest.xml:21:5-66
MERGED from [com.google.android.gms:play-services-iid:11.0.0] /Users/paulohenrique/Documents/ARQUIVOS/Projetos/2017/aplicativos/radicais_livres/app/react_native/android/app/build/intermediates/exploded-aar/com.google.android.gms/play-services-iid/11.0.0/AndroidManifest.xml:21:5-66
MERGED from [com.google.firebase:firebase-analytics:11.0.0] /Users/paulohenrique/Documents/ARQUIVOS/Projetos/2017/aplicativos/radicais_livres/app/react_native/android/app/build/intermediates/exploded-aar/com.google.firebase/firebase-analytics/11.0.0/AndroidManifest.xml:20:5-66
MERGED from [com.google.firebase:firebase-analytics-impl:11.0.0] /Users/paulohenrique/Documents/ARQUIVOS/Projetos/2017/aplicativos/radicais_livres/app/react_native/android/app/build/intermediates/exploded-aar/com.google.firebase/firebase-analytics-impl/11.0.0/AndroidManifest.xml:20:5-66
MERGED from [com.google.firebase:firebase-iid:11.0.0] /Users/paulohenrique/Documents/ARQUIVOS/Projetos/2017/aplicativos/radicais_livres/app/react_native/android/app/build/intermediates/exploded-aar/com.google.firebase/firebase-iid/11.0.0/AndroidManifest.xml:20:5-66
	android:name
		ADDED from /Users/paulohenrique/Documents/ARQUIVOS/Projetos/2017/aplicativos/radicais_livres/app/react_native/android/app/src/main/AndroidManifest.xml:6:22-64
uses-permission#android.permission.SYSTEM_ALERT_WINDOW
ADDED from /Users/paulohenrique/Documents/ARQUIVOS/Projetos/2017/aplicativos/radicais_livres/app/react_native/android/app/src/main/AndroidManifest.xml:7:5-77
MERGED from [com.facebook.react:react-native:0.44.0] /Users/paulohenrique/Documents/ARQUIVOS/Projetos/2017/aplicativos/radicais_livres/app/react_native/android/app/build/intermediates/exploded-aar/com.facebook.react/react-native/0.44.0/AndroidManifest.xml:11:5-78
	android:name
		ADDED from /Users/paulohenrique/Documents/ARQUIVOS/Projetos/2017/aplicativos/radicais_livres/app/react_native/android/app/src/main/AndroidManifest.xml:7:22-75
uses-permission#android.permission.RECEIVE_BOOT_COMPLETED
ADDED from /Users/paulohenrique/Documents/ARQUIVOS/Projetos/2017/aplicativos/radicais_livres/app/react_native/android/app/src/main/AndroidManifest.xml:8:5-80
	android:name
		ADDED from /Users/paulohenrique/Documents/ARQUIVOS/Projetos/2017/aplicativos/radicais_livres/app/react_native/android/app/src/main/AndroidManifest.xml:8:22-78
uses-permission#android.permission.VIBRATE
ADDED from /Users/paulohenrique/Documents/ARQUIVOS/Projetos/2017/aplicativos/radicais_livres/app/react_native/android/app/src/main/AndroidManifest.xml:9:5-65
MERGED from [RadicaisLivres:react-native-interactable:unspecified] /Users/paulohenrique/Documents/ARQUIVOS/Projetos/2017/aplicativos/radicais_livres/app/react_native/android/app/build/intermediates/exploded-aar/RadicaisLivres/react-native-interactable/unspecified/AndroidManifest.xml:11:5-66
	android:name
		ADDED from /Users/paulohenrique/Documents/ARQUIVOS/Projetos/2017/aplicativos/radicais_livres/app/react_native/android/app/src/main/AndroidManifest.xml:9:22-63
uses-permission#android.permission.WRITE_EXTERNAL_STORAGE
ADDED from /Users/paulohenrique/Documents/ARQUIVOS/Projetos/2017/aplicativos/radicais_livres/app/react_native/android/app/src/main/AndroidManifest.xml:10:5-80
MERGED from [RadicaisLivres:rncamerakit:unspecified] /Users/paulohenrique/Documents/ARQUIVOS/Projetos/2017/aplicativos/radicais_livres/app/react_native/android/app/build/intermediates/exploded-aar/RadicaisLivres/rncamerakit/unspecified/AndroidManifest.xml:13:5-81
MERGED from [RadicaisLivres:react-native-fs:unspecified] /Users/paulohenrique/Documents/ARQUIVOS/Projetos/2017/aplicativos/radicais_livres/app/react_native/android/app/build/intermediates/exploded-aar/RadicaisLivres/react-native-fs/unspecified/AndroidManifest.xml:11:5-81
	android:name
		ADDED from /Users/paulohenrique/Documents/ARQUIVOS/Projetos/2017/aplicativos/radicais_livres/app/react_native/android/app/src/main/AndroidManifest.xml:10:22-78
uses-permission#android.permission.BLUETOOTH
ADDED from /Users/paulohenrique/Documents/ARQUIVOS/Projetos/2017/aplicativos/radicais_livres/app/react_native/android/app/src/main/AndroidManifest.xml:11:5-67
	android:name
		ADDED from /Users/paulohenrique/Documents/ARQUIVOS/Projetos/2017/aplicativos/radicais_livres/app/react_native/android/app/src/main/AndroidManifest.xml:11:22-65
uses-permission#android.permission.READ_EXTERNAL_STORAGE
ADDED from /Users/paulohenrique/Documents/ARQUIVOS/Projetos/2017/aplicativos/radicais_livres/app/react_native/android/app/src/main/AndroidManifest.xml:12:5-80
MERGED from [RadicaisLivres:rncamerakit:unspecified] /Users/paulohenrique/Documents/ARQUIVOS/Projetos/2017/aplicativos/radicais_livres/app/react_native/android/app/build/intermediates/exploded-aar/RadicaisLivres/rncamerakit/unspecified/AndroidManifest.xml:12:5-80
	android:name
		ADDED from /Users/paulohenrique/Documents/ARQUIVOS/Projetos/2017/aplicativos/radicais_livres/app/react_native/android/app/src/main/AndroidManifest.xml:12:22-77
uses-permission#android.permission.RECORD_AUDIO
ADDED from /Users/paulohenrique/Documents/ARQUIVOS/Projetos/2017/aplicativos/radicais_livres/app/react_native/android/app/src/main/AndroidManifest.xml:13:5-70
	android:name
		ADDED from /Users/paulohenrique/Documents/ARQUIVOS/Projetos/2017/aplicativos/radicais_livres/app/react_native/android/app/src/main/AndroidManifest.xml:13:22-68
uses-permission#android.permission.RECORD_VIDEO
ADDED from /Users/paulohenrique/Documents/ARQUIVOS/Projetos/2017/aplicativos/radicais_livres/app/react_native/android/app/src/main/AndroidManifest.xml:14:5-70
	android:name
		ADDED from /Users/paulohenrique/Documents/ARQUIVOS/Projetos/2017/aplicativos/radicais_livres/app/react_native/android/app/src/main/AndroidManifest.xml:14:22-68
uses-permission#android.permission.CAMERA
ADDED from /Users/paulohenrique/Documents/ARQUIVOS/Projetos/2017/aplicativos/radicais_livres/app/react_native/android/app/src/main/AndroidManifest.xml:15:5-65
MERGED from [RadicaisLivres:rncamerakit:unspecified] /Users/paulohenrique/Documents/ARQUIVOS/Projetos/2017/aplicativos/radicais_livres/app/react_native/android/app/build/intermediates/exploded-aar/RadicaisLivres/rncamerakit/unspecified/AndroidManifest.xml:11:5-65
MERGED from [RadicaisLivres:RCTCamera:unspecified] /Users/paulohenrique/Documents/ARQUIVOS/Projetos/2017/aplicativos/radicais_livres/app/react_native/android/app/build/intermediates/exploded-aar/RadicaisLivres/RCTCamera/unspecified/AndroidManifest.xml:11:5-65
	android:name
		ADDED from /Users/paulohenrique/Documents/ARQUIVOS/Projetos/2017/aplicativos/radicais_livres/app/react_native/android/app/src/main/AndroidManifest.xml:15:22-62
uses-feature#android.hardware.camera
ADDED from /Users/paulohenrique/Documents/ARQUIVOS/Projetos/2017/aplicativos/radicais_livres/app/react_native/android/app/src/main/AndroidManifest.xml:16:5-60
MERGED from [RadicaisLivres:RCTCamera:unspecified] /Users/paulohenrique/Documents/ARQUIVOS/Projetos/2017/aplicativos/radicais_livres/app/react_native/android/app/build/intermediates/exploded-aar/RadicaisLivres/RCTCamera/unspecified/AndroidManifest.xml:13:5-15:36
	android:name
		ADDED from /Users/paulohenrique/Documents/ARQUIVOS/Projetos/2017/aplicativos/radicais_livres/app/react_native/android/app/src/main/AndroidManifest.xml:16:19-57
uses-feature#android.hardware.camera.autofocus
ADDED from /Users/paulohenrique/Documents/ARQUIVOS/Projetos/2017/aplicativos/radicais_livres/app/react_native/android/app/src/main/AndroidManifest.xml:17:5-70
MERGED from [RadicaisLivres:RCTCamera:unspecified] /Users/paulohenrique/Documents/ARQUIVOS/Projetos/2017/aplicativos/radicais_livres/app/react_native/android/app/build/intermediates/exploded-aar/RadicaisLivres/RCTCamera/unspecified/AndroidManifest.xml:16:5-18:36
	android:name
		ADDED from /Users/paulohenrique/Documents/ARQUIVOS/Projetos/2017/aplicativos/radicais_livres/app/react_native/android/app/src/main/AndroidManifest.xml:17:19-67
uses-sdk
ADDED from /Users/paulohenrique/Documents/ARQUIVOS/Projetos/2017/aplicativos/radicais_livres/app/react_native/android/app/src/main/AndroidManifest.xml:19:5-21:41
MERGED from [com.android.support:multidex:1.0.1] /Users/paulohenrique/Documents/ARQUIVOS/Projetos/2017/aplicativos/radicais_livres/app/react_native/android/app/build/intermediates/exploded-aar/com.android.support/multidex/1.0.1/AndroidManifest.xml:18:5-42
MERGED from [RadicaisLivres:react-native-interactable:unspecified] /Users/paulohenrique/Documents/ARQUIVOS/Projetos/2017/aplicativos/radicais_livres/app/react_native/android/app/build/intermediates/exploded-aar/RadicaisLivres/react-native-interactable/unspecified/AndroidManifest.xml:7:5-9:41
MERGED from [RadicaisLivres:rncamerakit:unspecified] /Users/paulohenrique/Documents/ARQUIVOS/Projetos/2017/aplicativos/radicais_livres/app/react_native/android/app/build/intermediates/exploded-aar/RadicaisLivres/rncamerakit/unspecified/AndroidManifest.xml:7:5-9:41
MERGED from [RadicaisLivres:RNGL:unspecified] /Users/paulohenrique/Documents/ARQUIVOS/Projetos/2017/aplicativos/radicais_livres/app/react_native/android/app/build/intermediates/exploded-aar/RadicaisLivres/RNGL/unspecified/AndroidManifest.xml:7:5-9:41
MERGED from [RadicaisLivres:react-native-fast-image:unspecified] /Users/paulohenrique/Documents/ARQUIVOS/Projetos/2017/aplicativos/radicais_livres/app/react_native/android/app/build/intermediates/exploded-aar/RadicaisLivres/react-native-fast-image/unspecified/AndroidManifest.xml:7:5-9:41
MERGED from [RadicaisLivres:react-native-image-resizer:unspecified] /Users/paulohenrique/Documents/ARQUIVOS/Projetos/2017/aplicativos/radicais_livres/app/react_native/android/app/build/intermediates/exploded-aar/RadicaisLivres/react-native-image-resizer/unspecified/AndroidManifest.xml:7:5-9:41
MERGED from [RadicaisLivres:react-native-share:unspecified] /Users/paulohenrique/Documents/ARQUIVOS/Projetos/2017/aplicativos/radicais_livres/app/react_native/android/app/build/intermediates/exploded-aar/RadicaisLivres/react-native-share/unspecified/AndroidManifest.xml:7:5-9:41
MERGED from [RadicaisLivres:react-native-svg:unspecified] /Users/paulohenrique/Documents/ARQUIVOS/Projetos/2017/aplicativos/radicais_livres/app/react_native/android/app/build/intermediates/exploded-aar/RadicaisLivres/react-native-svg/unspecified/AndroidManifest.xml:7:5-9:41
MERGED from [RadicaisLivres:RCTCamera:unspecified] /Users/paulohenrique/Documents/ARQUIVOS/Projetos/2017/aplicativos/radicais_livres/app/react_native/android/app/build/intermediates/exploded-aar/RadicaisLivres/RCTCamera/unspecified/AndroidManifest.xml:7:5-9:41
MERGED from [RadicaisLivres:react-native-fetch-blob:unspecified] /Users/paulohenrique/Documents/ARQUIVOS/Projetos/2017/aplicativos/radicais_livres/app/react_native/android/app/build/intermediates/exploded-aar/RadicaisLivres/react-native-fetch-blob/unspecified/AndroidManifest.xml:7:5-9:41
MERGED from [RadicaisLivres:react-native-android-location-services-dialog-box:unspecified] /Users/paulohenrique/Documents/ARQUIVOS/Projetos/2017/aplicativos/radicais_livres/app/react_native/android/app/build/intermediates/exploded-aar/RadicaisLivres/react-native-android-location-services-dialog-box/unspecified/AndroidManifest.xml:5:5-7:41
MERGED from [RadicaisLivres:RNPermissionsModule:unspecified] /Users/paulohenrique/Documents/ARQUIVOS/Projetos/2017/aplicativos/radicais_livres/app/react_native/android/app/build/intermediates/exploded-aar/RadicaisLivres/RNPermissionsModule/unspecified/AndroidManifest.xml:7:5-9:41
MERGED from [RadicaisLivres:react-native-video:unspecified] /Users/paulohenrique/Documents/ARQUIVOS/Projetos/2017/aplicativos/radicais_livres/app/react_native/android/app/build/intermediates/exploded-aar/RadicaisLivres/react-native-video/unspecified/AndroidManifest.xml:7:5-9:41
MERGED from [com.yqritc:android-scalablevideoview:1.0.4] /Users/paulohenrique/Documents/ARQUIVOS/Projetos/2017/aplicativos/radicais_livres/app/react_native/android/app/build/intermediates/exploded-aar/com.yqritc/android-scalablevideoview/1.0.4/AndroidManifest.xml:8:5-10:41
MERGED from [RadicaisLivres:react-native-i18n:unspecified] /Users/paulohenrique/Documents/ARQUIVOS/Projetos/2017/aplicativos/radicais_livres/app/react_native/android/app/build/intermediates/exploded-aar/RadicaisLivres/react-native-i18n/unspecified/AndroidManifest.xml:7:5-9:41
MERGED from [RadicaisLivres:react-native-facebook-login:unspecified] /Users/paulohenrique/Documents/ARQUIVOS/Projetos/2017/aplicativos/radicais_livres/app/react_native/android/app/build/intermediates/exploded-aar/RadicaisLivres/react-native-facebook-login/unspecified/AndroidManifest.xml:7:5-9:41
MERGED from [com.facebook.android:facebook-android-sdk:4.16.1] /Users/paulohenrique/Documents/ARQUIVOS/Projetos/2017/aplicativos/radicais_livres/app/react_native/android/app/build/intermediates/exploded-aar/com.facebook.android/facebook-android-sdk/4.16.1/AndroidManifest.xml:24:5-26:41
MERGED from [com.android.support:cardview-v7:23.4.0] /Users/paulohenrique/Documents/ARQUIVOS/Projetos/2017/aplicativos/radicais_livres/app/react_native/android/app/build/intermediates/exploded-aar/com.android.support/cardview-v7/23.4.0/AndroidManifest.xml:20:5-43
MERGED from [com.android.support:customtabs:23.4.0] /Users/paulohenrique/Documents/ARQUIVOS/Projetos/2017/aplicativos/radicais_livres/app/react_native/android/app/build/intermediates/exploded-aar/com.android.support/customtabs/23.4.0/AndroidManifest.xml:20:5-44
MERGED from [RadicaisLivres:react-native-device-info:unspecified] /Users/paulohenrique/Documents/ARQUIVOS/Projetos/2017/aplicativos/radicais_livres/app/react_native/android/app/build/intermediates/exploded-aar/RadicaisLivres/react-native-device-info/unspecified/AndroidManifest.xml:7:5-9:41
MERGED from [com.google.android.gms:play-services-gcm:11.0.0] /Users/paulohenrique/Documents/ARQUIVOS/Projetos/2017/aplicativos/radicais_livres/app/react_native/android/app/build/intermediates/exploded-aar/com.google.android.gms/play-services-gcm/11.0.0/AndroidManifest.xml:17:5-43
MERGED from [com.google.android.gms:play-services-iid:11.0.0] /Users/paulohenrique/Documents/ARQUIVOS/Projetos/2017/aplicativos/radicais_livres/app/react_native/android/app/build/intermediates/exploded-aar/com.google.android.gms/play-services-iid/11.0.0/AndroidManifest.xml:17:5-43
MERGED from [com.google.android.gms:play-services-base:11.0.0] /Users/paulohenrique/Documents/ARQUIVOS/Projetos/2017/aplicativos/radicais_livres/app/react_native/android/app/build/intermediates/exploded-aar/com.google.android.gms/play-services-base/11.0.0/AndroidManifest.xml:17:5-43
MERGED from [RadicaisLivres:react-native-image-picker:unspecified] /Users/paulohenrique/Documents/ARQUIVOS/Projetos/2017/aplicativos/radicais_livres/app/react_native/android/app/build/intermediates/exploded-aar/RadicaisLivres/react-native-image-picker/unspecified/AndroidManifest.xml:7:5-9:41
MERGED from [RadicaisLivres:react-native-fcm:unspecified] /Users/paulohenrique/Documents/ARQUIVOS/Projetos/2017/aplicativos/radicais_livres/app/react_native/android/app/build/intermediates/exploded-aar/RadicaisLivres/react-native-fcm/unspecified/AndroidManifest.xml:7:5-9:41
MERGED from [com.google.firebase:firebase-messaging:11.0.0] /Users/paulohenrique/Documents/ARQUIVOS/Projetos/2017/aplicativos/radicais_livres/app/react_native/android/app/build/intermediates/exploded-aar/com.google.firebase/firebase-messaging/11.0.0/AndroidManifest.xml:17:5-43
MERGED from [me.leolin:ShortcutBadger:1.1.10] /Users/paulohenrique/Documents/ARQUIVOS/Projetos/2017/aplicativos/radicais_livres/app/react_native/android/app/build/intermediates/exploded-aar/me.leolin/ShortcutBadger/1.1.10/AndroidManifest.xml:7:5-9:41
MERGED from [com.google.firebase:firebase-core:11.0.0] /Users/paulohenrique/Documents/ARQUIVOS/Projetos/2017/aplicativos/radicais_livres/app/react_native/android/app/build/intermediates/exploded-aar/com.google.firebase/firebase-core/11.0.0/AndroidManifest.xml:4:5-43
MERGED from [com.google.firebase:firebase-analytics:11.0.0] /Users/paulohenrique/Documents/ARQUIVOS/Projetos/2017/aplicativos/radicais_livres/app/react_native/android/app/build/intermediates/exploded-aar/com.google.firebase/firebase-analytics/11.0.0/AndroidManifest.xml:17:5-43
MERGED from [com.google.firebase:firebase-analytics-impl:11.0.0] /Users/paulohenrique/Documents/ARQUIVOS/Projetos/2017/aplicativos/radicais_livres/app/react_native/android/app/build/intermediates/exploded-aar/com.google.firebase/firebase-analytics-impl/11.0.0/AndroidManifest.xml:17:5-43
MERGED from [com.google.firebase:firebase-iid:11.0.0] /Users/paulohenrique/Documents/ARQUIVOS/Projetos/2017/aplicativos/radicais_livres/app/react_native/android/app/build/intermediates/exploded-aar/com.google.firebase/firebase-iid/11.0.0/AndroidManifest.xml:17:5-43
MERGED from [com.google.firebase:firebase-common:11.0.0] /Users/paulohenrique/Documents/ARQUIVOS/Projetos/2017/aplicativos/radicais_livres/app/react_native/android/app/build/intermediates/exploded-aar/com.google.firebase/firebase-common/11.0.0/AndroidManifest.xml:3:5-43
MERGED from [com.google.android.gms:play-services-tasks:11.0.0] /Users/paulohenrique/Documents/ARQUIVOS/Projetos/2017/aplicativos/radicais_livres/app/react_native/android/app/build/intermediates/exploded-aar/com.google.android.gms/play-services-tasks/11.0.0/AndroidManifest.xml:3:5-43
MERGED from [com.google.android.gms:play-services-basement:11.0.0] /Users/paulohenrique/Documents/ARQUIVOS/Projetos/2017/aplicativos/radicais_livres/app/react_native/android/app/build/intermediates/exploded-aar/com.google.android.gms/play-services-basement/11.0.0/AndroidManifest.xml:17:5-43
MERGED from [RadicaisLivres:react-native-vector-icons:unspecified] /Users/paulohenrique/Documents/ARQUIVOS/Projetos/2017/aplicativos/radicais_livres/app/react_native/android/app/build/intermediates/exploded-aar/RadicaisLivres/react-native-vector-icons/unspecified/AndroidManifest.xml:7:5-9:41
MERGED from [RadicaisLivres:react-native-fs:unspecified] /Users/paulohenrique/Documents/ARQUIVOS/Projetos/2017/aplicativos/radicais_livres/app/react_native/android/app/build/intermediates/exploded-aar/RadicaisLivres/react-native-fs/unspecified/AndroidManifest.xml:7:5-9:41
MERGED from [com.android.support:recyclerview-v7:25.0.1] /Users/paulohenrique/Documents/ARQUIVOS/Projetos/2017/aplicativos/radicais_livres/app/react_native/android/app/build/intermediates/exploded-aar/com.android.support/recyclerview-v7/25.0.1/AndroidManifest.xml:20:5-43
MERGED from [com.facebook.react:react-native:0.44.0] /Users/paulohenrique/Documents/ARQUIVOS/Projetos/2017/aplicativos/radicais_livres/app/react_native/android/app/build/intermediates/exploded-aar/com.facebook.react/react-native/0.44.0/AndroidManifest.xml:7:5-9:41
MERGED from [com.android.support:appcompat-v7:25.0.1] /Users/paulohenrique/Documents/ARQUIVOS/Projetos/2017/aplicativos/radicais_livres/app/react_native/android/app/build/intermediates/exploded-aar/com.android.support/appcompat-v7/25.0.1/AndroidManifest.xml:21:5-23:78
MERGED from [com.android.support:support-v4:25.2.0] /Users/paulohenrique/Documents/ARQUIVOS/Projetos/2017/aplicativos/radicais_livres/app/react_native/android/app/build/intermediates/exploded-aar/com.android.support/support-v4/25.2.0/AndroidManifest.xml:21:5-23:54
MERGED from [com.android.support:support-fragment:25.2.0] /Users/paulohenrique/Documents/ARQUIVOS/Projetos/2017/aplicativos/radicais_livres/app/react_native/android/app/build/intermediates/exploded-aar/com.android.support/support-fragment/25.2.0/AndroidManifest.xml:21:5-23:60
MERGED from [com.android.support:support-media-compat:25.2.0] /Users/paulohenrique/Documents/ARQUIVOS/Projetos/2017/aplicativos/radicais_livres/app/react_native/android/app/build/intermediates/exploded-aar/com.android.support/support-media-compat/25.2.0/AndroidManifest.xml:21:5-23:63
MERGED from [com.android.support:support-core-ui:25.2.0] /Users/paulohenrique/Documents/ARQUIVOS/Projetos/2017/aplicativos/radicais_livres/app/react_native/android/app/build/intermediates/exploded-aar/com.android.support/support-core-ui/25.2.0/AndroidManifest.xml:21:5-23:58
MERGED from [com.android.support:support-core-utils:25.2.0] /Users/paulohenrique/Documents/ARQUIVOS/Projetos/2017/aplicativos/radicais_livres/app/react_native/android/app/build/intermediates/exploded-aar/com.android.support/support-core-utils/25.2.0/AndroidManifest.xml:21:5-23:61
MERGED from [com.android.support:animated-vector-drawable:25.0.1] /Users/paulohenrique/Documents/ARQUIVOS/Projetos/2017/aplicativos/radicais_livres/app/react_native/android/app/build/intermediates/exploded-aar/com.android.support/animated-vector-drawable/25.0.1/AndroidManifest.xml:20:5-44
MERGED from [com.android.support:support-vector-drawable:25.0.1] /Users/paulohenrique/Documents/ARQUIVOS/Projetos/2017/aplicativos/radicais_livres/app/react_native/android/app/build/intermediates/exploded-aar/com.android.support/support-vector-drawable/25.0.1/AndroidManifest.xml:21:5-43
MERGED from [com.android.support:support-compat:25.2.0] /Users/paulohenrique/Documents/ARQUIVOS/Projetos/2017/aplicativos/radicais_livres/app/react_native/android/app/build/intermediates/exploded-aar/com.android.support/support-compat/25.2.0/AndroidManifest.xml:21:5-23:58
MERGED from [com.facebook.fbui.textlayoutbuilder:textlayoutbuilder:1.0.0] /Users/paulohenrique/Documents/ARQUIVOS/Projetos/2017/aplicativos/radicais_livres/app/react_native/android/app/build/intermediates/exploded-aar/com.facebook.fbui.textlayoutbuilder/textlayoutbuilder/1.0.0/AndroidManifest.xml:14:5-16:41
MERGED from [com.facebook.fresco:fresco:1.0.1] /Users/paulohenrique/Documents/ARQUIVOS/Projetos/2017/aplicativos/radicais_livres/app/react_native/android/app/build/intermediates/exploded-aar/com.facebook.fresco/fresco/1.0.1/AndroidManifest.xml:5:5-7:41
MERGED from [com.facebook.fresco:drawee:1.0.1] /Users/paulohenrique/Documents/ARQUIVOS/Projetos/2017/aplicativos/radicais_livres/app/react_native/android/app/build/intermediates/exploded-aar/com.facebook.fresco/drawee/1.0.1/AndroidManifest.xml:5:5-7:41
MERGED from [com.facebook.fresco:imagepipeline-okhttp3:1.0.1] /Users/paulohenrique/Documents/ARQUIVOS/Projetos/2017/aplicativos/radicais_livres/app/react_native/android/app/build/intermediates/exploded-aar/com.facebook.fresco/imagepipeline-okhttp3/1.0.1/AndroidManifest.xml:5:5-7:41
MERGED from [com.facebook.fresco:imagepipeline:1.0.1] /Users/paulohenrique/Documents/ARQUIVOS/Projetos/2017/aplicativos/radicais_livres/app/react_native/android/app/build/intermediates/exploded-aar/com.facebook.fresco/imagepipeline/1.0.1/AndroidManifest.xml:5:5-7:41
MERGED from [com.facebook.fresco:imagepipeline-base:1.0.1] /Users/paulohenrique/Documents/ARQUIVOS/Projetos/2017/aplicativos/radicais_livres/app/react_native/android/app/build/intermediates/exploded-aar/com.facebook.fresco/imagepipeline-base/1.0.1/AndroidManifest.xml:5:5-7:41
MERGED from [com.facebook.fresco:fbcore:1.0.1] /Users/paulohenrique/Documents/ARQUIVOS/Projetos/2017/aplicativos/radicais_livres/app/react_native/android/app/build/intermediates/exploded-aar/com.facebook.fresco/fbcore/1.0.1/AndroidManifest.xml:5:5-7:41
MERGED from [com.facebook.soloader:soloader:0.1.0] /Users/paulohenrique/Documents/ARQUIVOS/Projetos/2017/aplicativos/radicais_livres/app/react_native/android/app/build/intermediates/exploded-aar/com.facebook.soloader/soloader/0.1.0/AndroidManifest.xml:2:3-70
	tools:overrideLibrary
		ADDED from [com.android.support:appcompat-v7:25.0.1] /Users/paulohenrique/Documents/ARQUIVOS/Projetos/2017/aplicativos/radicais_livres/app/react_native/android/app/build/intermediates/exploded-aar/com.android.support/appcompat-v7/25.0.1/AndroidManifest.xml:23:9-75
	android:targetSdkVersion
		ADDED from /Users/paulohenrique/Documents/ARQUIVOS/Projetos/2017/aplicativos/radicais_livres/app/react_native/android/app/src/main/AndroidManifest.xml:21:9-38
		INJECTED from /Users/paulohenrique/Documents/ARQUIVOS/Projetos/2017/aplicativos/radicais_livres/app/react_native/android/app/src/main/AndroidManifest.xml
		INJECTED from /Users/paulohenrique/Documents/ARQUIVOS/Projetos/2017/aplicativos/radicais_livres/app/react_native/android/app/src/main/AndroidManifest.xml
	android:minSdkVersion
		ADDED from /Users/paulohenrique/Documents/ARQUIVOS/Projetos/2017/aplicativos/radicais_livres/app/react_native/android/app/src/main/AndroidManifest.xml:20:9-35
		INJECTED from /Users/paulohenrique/Documents/ARQUIVOS/Projetos/2017/aplicativos/radicais_livres/app/react_native/android/app/src/main/AndroidManifest.xml
		INJECTED from /Users/paulohenrique/Documents/ARQUIVOS/Projetos/2017/aplicativos/radicais_livres/app/react_native/android/app/src/main/AndroidManifest.xml
application
ADDED from /Users/paulohenrique/Documents/ARQUIVOS/Projetos/2017/aplicativos/radicais_livres/app/react_native/android/app/src/main/AndroidManifest.xml:23:5-100:19
MERGED from [RadicaisLivres:react-native-interactable:unspecified] /Users/paulohenrique/Documents/ARQUIVOS/Projetos/2017/aplicativos/radicais_livres/app/react_native/android/app/build/intermediates/exploded-aar/RadicaisLivres/react-native-interactable/unspecified/AndroidManifest.xml:13:5-18:19
MERGED from [RadicaisLivres:react-native-fetch-blob:unspecified] /Users/paulohenrique/Documents/ARQUIVOS/Projetos/2017/aplicativos/radicais_livres/app/react_native/android/app/build/intermediates/exploded-aar/RadicaisLivres/react-native-fetch-blob/unspecified/AndroidManifest.xml:11:5-12:19
MERGED from [com.facebook.android:facebook-android-sdk:4.16.1] /Users/paulohenrique/Documents/ARQUIVOS/Projetos/2017/aplicativos/radicais_livres/app/react_native/android/app/build/intermediates/exploded-aar/com.facebook.android/facebook-android-sdk/4.16.1/AndroidManifest.xml:28:5-38:19
MERGED from [com.android.support:cardview-v7:23.4.0] /Users/paulohenrique/Documents/ARQUIVOS/Projetos/2017/aplicativos/radicais_livres/app/react_native/android/app/build/intermediates/exploded-aar/com.android.support/cardview-v7/23.4.0/AndroidManifest.xml:22:5-20
MERGED from [com.android.support:customtabs:23.4.0] /Users/paulohenrique/Documents/ARQUIVOS/Projetos/2017/aplicativos/radicais_livres/app/react_native/android/app/build/intermediates/exploded-aar/com.android.support/customtabs/23.4.0/AndroidManifest.xml:22:5-20
MERGED from [com.google.android.gms:play-services-gcm:11.0.0] /Users/paulohenrique/Documents/ARQUIVOS/Projetos/2017/aplicativos/radicais_livres/app/react_native/android/app/build/intermediates/exploded-aar/com.google.android.gms/play-services-gcm/11.0.0/AndroidManifest.xml:23:5-19
MERGED from [com.google.android.gms:play-services-iid:11.0.0] /Users/paulohenrique/Documents/ARQUIVOS/Projetos/2017/aplicativos/radicais_livres/app/react_native/android/app/build/intermediates/exploded-aar/com.google.android.gms/play-services-iid/11.0.0/AndroidManifest.xml:23:5-19
MERGED from [com.google.android.gms:play-services-base:11.0.0] /Users/paulohenrique/Documents/ARQUIVOS/Projetos/2017/aplicativos/radicais_livres/app/react_native/android/app/build/intermediates/exploded-aar/com.google.android.gms/play-services-base/11.0.0/AndroidManifest.xml:18:5-20:19
MERGED from [RadicaisLivres:react-native-image-picker:unspecified] /Users/paulohenrique/Documents/ARQUIVOS/Projetos/2017/aplicativos/radicais_livres/app/react_native/android/app/build/intermediates/exploded-aar/RadicaisLivres/react-native-image-picker/unspecified/AndroidManifest.xml:11:5-21:19
MERGED from [com.google.firebase:firebase-messaging:11.0.0] /Users/paulohenrique/Documents/ARQUIVOS/Projetos/2017/aplicativos/radicais_livres/app/react_native/android/app/build/intermediates/exploded-aar/com.google.firebase/firebase-messaging/11.0.0/AndroidManifest.xml:19:5-29:19
MERGED from [com.google.firebase:firebase-core:11.0.0] /Users/paulohenrique/Documents/ARQUIVOS/Projetos/2017/aplicativos/radicais_livres/app/react_native/android/app/build/intermediates/exploded-aar/com.google.firebase/firebase-core/11.0.0/AndroidManifest.xml:5:5-20
MERGED from [com.google.firebase:firebase-analytics:11.0.0] /Users/paulohenrique/Documents/ARQUIVOS/Projetos/2017/aplicativos/radicais_livres/app/react_native/android/app/build/intermediates/exploded-aar/com.google.firebase/firebase-analytics/11.0.0/AndroidManifest.xml:24:5-34:19
MERGED from [com.google.firebase:firebase-analytics-impl:11.0.0] /Users/paulohenrique/Documents/ARQUIVOS/Projetos/2017/aplicativos/radicais_livres/app/react_native/android/app/build/intermediates/exploded-aar/com.google.firebase/firebase-analytics-impl/11.0.0/AndroidManifest.xml:24:5-28:19
MERGED from [com.google.firebase:firebase-iid:11.0.0] /Users/paulohenrique/Documents/ARQUIVOS/Projetos/2017/aplicativos/radicais_livres/app/react_native/android/app/build/intermediates/exploded-aar/com.google.firebase/firebase-iid/11.0.0/AndroidManifest.xml:28:5-49:19
MERGED from [com.google.firebase:firebase-common:11.0.0] /Users/paulohenrique/Documents/ARQUIVOS/Projetos/2017/aplicativos/radicais_livres/app/react_native/android/app/build/intermediates/exploded-aar/com.google.firebase/firebase-common/11.0.0/AndroidManifest.xml:4:5-7:19
MERGED from [com.google.android.gms:play-services-tasks:11.0.0] /Users/paulohenrique/Documents/ARQUIVOS/Projetos/2017/aplicativos/radicais_livres/app/react_native/android/app/build/intermediates/exploded-aar/com.google.android.gms/play-services-tasks/11.0.0/AndroidManifest.xml:4:5-19
MERGED from [com.google.android.gms:play-services-basement:11.0.0] /Users/paulohenrique/Documents/ARQUIVOS/Projetos/2017/aplicativos/radicais_livres/app/react_native/android/app/build/intermediates/exploded-aar/com.google.android.gms/play-services-basement/11.0.0/AndroidManifest.xml:19:5-21:19
MERGED from [com.facebook.react:react-native:0.44.0] /Users/paulohenrique/Documents/ARQUIVOS/Projetos/2017/aplicativos/radicais_livres/app/react_native/android/app/build/intermediates/exploded-aar/com.facebook.react/react-native/0.44.0/AndroidManifest.xml:13:5-20
MERGED from [com.android.support:appcompat-v7:25.0.1] /Users/paulohenrique/Documents/ARQUIVOS/Projetos/2017/aplicativos/radicais_livres/app/react_native/android/app/build/intermediates/exploded-aar/com.android.support/appcompat-v7/25.0.1/AndroidManifest.xml:25:5-20
MERGED from [com.android.support:support-v4:25.2.0] /Users/paulohenrique/Documents/ARQUIVOS/Projetos/2017/aplicativos/radicais_livres/app/react_native/android/app/build/intermediates/exploded-aar/com.android.support/support-v4/25.2.0/AndroidManifest.xml:25:5-20
MERGED from [com.android.support:support-fragment:25.2.0] /Users/paulohenrique/Documents/ARQUIVOS/Projetos/2017/aplicativos/radicais_livres/app/react_native/android/app/build/intermediates/exploded-aar/com.android.support/support-fragment/25.2.0/AndroidManifest.xml:25:5-20
MERGED from [com.android.support:support-media-compat:25.2.0] /Users/paulohenrique/Documents/ARQUIVOS/Projetos/2017/aplicativos/radicais_livres/app/react_native/android/app/build/intermediates/exploded-aar/com.android.support/support-media-compat/25.2.0/AndroidManifest.xml:25:5-20
MERGED from [com.android.support:support-core-ui:25.2.0] /Users/paulohenrique/Documents/ARQUIVOS/Projetos/2017/aplicativos/radicais_livres/app/react_native/android/app/build/intermediates/exploded-aar/com.android.support/support-core-ui/25.2.0/AndroidManifest.xml:25:5-20
MERGED from [com.android.support:support-core-utils:25.2.0] /Users/paulohenrique/Documents/ARQUIVOS/Projetos/2017/aplicativos/radicais_livres/app/react_native/android/app/build/intermediates/exploded-aar/com.android.support/support-core-utils/25.2.0/AndroidManifest.xml:25:5-20
MERGED from [com.android.support:animated-vector-drawable:25.0.1] /Users/paulohenrique/Documents/ARQUIVOS/Projetos/2017/aplicativos/radicais_livres/app/react_native/android/app/build/intermediates/exploded-aar/com.android.support/animated-vector-drawable/25.0.1/AndroidManifest.xml:22:5-20
MERGED from [com.android.support:support-vector-drawable:25.0.1] /Users/paulohenrique/Documents/ARQUIVOS/Projetos/2017/aplicativos/radicais_livres/app/react_native/android/app/build/intermediates/exploded-aar/com.android.support/support-vector-drawable/25.0.1/AndroidManifest.xml:23:5-20
MERGED from [com.android.support:support-compat:25.2.0] /Users/paulohenrique/Documents/ARQUIVOS/Projetos/2017/aplicativos/radicais_livres/app/react_native/android/app/build/intermediates/exploded-aar/com.android.support/support-compat/25.2.0/AndroidManifest.xml:25:5-20
MERGED from [com.facebook.soloader:soloader:0.1.0] /Users/paulohenrique/Documents/ARQUIVOS/Projetos/2017/aplicativos/radicais_livres/app/react_native/android/app/build/intermediates/exploded-aar/com.facebook.soloader/soloader/0.1.0/AndroidManifest.xml:3:3-17
MERGED from [org.webkit:android-jsc:r174650] /Users/paulohenrique/Documents/ARQUIVOS/Projetos/2017/aplicativos/radicais_livres/app/react_native/android/app/build/intermediates/exploded-aar/org.webkit/android-jsc/r174650/AndroidManifest.xml:2:3-17
	android:label
		ADDED from /Users/paulohenrique/Documents/ARQUIVOS/Projetos/2017/aplicativos/radicais_livres/app/react_native/android/app/src/main/AndroidManifest.xml:26:7-39
	android:supportsRtl
		ADDED from [RadicaisLivres:react-native-interactable:unspecified] /Users/paulohenrique/Documents/ARQUIVOS/Projetos/2017/aplicativos/radicais_livres/app/react_native/android/app/build/intermediates/exploded-aar/RadicaisLivres/react-native-interactable/unspecified/AndroidManifest.xml:16:9-35
	android:allowBackup
		ADDED from /Users/paulohenrique/Documents/ARQUIVOS/Projetos/2017/aplicativos/radicais_livres/app/react_native/android/app/src/main/AndroidManifest.xml:25:7-33
	android:icon
		ADDED from /Users/paulohenrique/Documents/ARQUIVOS/Projetos/2017/aplicativos/radicais_livres/app/react_native/android/app/src/main/AndroidManifest.xml:27:7-41
	android:theme
		ADDED from /Users/paulohenrique/Documents/ARQUIVOS/Projetos/2017/aplicativos/radicais_livres/app/react_native/android/app/src/main/AndroidManifest.xml:28:7-38
	android:name
		ADDED from /Users/paulohenrique/Documents/ARQUIVOS/Projetos/2017/aplicativos/radicais_livres/app/react_native/android/app/src/main/AndroidManifest.xml:24:7-38
receiver#com.evollu.react.fcm.FIRLocalMessagingPublisher
ADDED from /Users/paulohenrique/Documents/ARQUIVOS/Projetos/2017/aplicativos/radicais_livres/app/react_native/android/app/src/main/AndroidManifest.xml:30:7-81
	android:name
		ADDED from /Users/paulohenrique/Documents/ARQUIVOS/Projetos/2017/aplicativos/radicais_livres/app/react_native/android/app/src/main/AndroidManifest.xml:30:17-79
receiver#com.evollu.react.fcm.FIRSystemBootEventReceiver
ADDED from /Users/paulohenrique/Documents/ARQUIVOS/Projetos/2017/aplicativos/radicais_livres/app/react_native/android/app/src/main/AndroidManifest.xml:31:7-38:18
	android:enabled
		ADDED from /Users/paulohenrique/Documents/ARQUIVOS/Projetos/2017/aplicativos/radicais_livres/app/react_native/android/app/src/main/AndroidManifest.xml:31:17-39
	android:exported
		ADDED from /Users/paulohenrique/Documents/ARQUIVOS/Projetos/2017/aplicativos/radicais_livres/app/react_native/android/app/src/main/AndroidManifest.xml:31:40-63
	android:name
		ADDED from /Users/paulohenrique/Documents/ARQUIVOS/Projetos/2017/aplicativos/radicais_livres/app/react_native/android/app/src/main/AndroidManifest.xml:31:65-127
intent-filter#android.intent.action.BOOT_COMPLETED+android.intent.action.QUICKBOOT_POWERON+android.intent.category.DEFAULT+com.htc.intent.action.QUICKBOOT_POWERON
ADDED from /Users/paulohenrique/Documents/ARQUIVOS/Projetos/2017/aplicativos/radicais_livres/app/react_native/android/app/src/main/AndroidManifest.xml:32:9-37:25
action#android.intent.action.BOOT_COMPLETED
ADDED from /Users/paulohenrique/Documents/ARQUIVOS/Projetos/2017/aplicativos/radicais_livres/app/react_native/android/app/src/main/AndroidManifest.xml:33:11-72
	android:name
		ADDED from /Users/paulohenrique/Documents/ARQUIVOS/Projetos/2017/aplicativos/radicais_livres/app/react_native/android/app/src/main/AndroidManifest.xml:33:19-70
action#android.intent.action.QUICKBOOT_POWERON
ADDED from /Users/paulohenrique/Documents/ARQUIVOS/Projetos/2017/aplicativos/radicais_livres/app/react_native/android/app/src/main/AndroidManifest.xml:34:11-75
	android:name
		ADDED from /Users/paulohenrique/Documents/ARQUIVOS/Projetos/2017/aplicativos/radicais_livres/app/react_native/android/app/src/main/AndroidManifest.xml:34:19-73
action#com.htc.intent.action.QUICKBOOT_POWERON
ADDED from /Users/paulohenrique/Documents/ARQUIVOS/Projetos/2017/aplicativos/radicais_livres/app/react_native/android/app/src/main/AndroidManifest.xml:35:11-75
	android:name
		ADDED from /Users/paulohenrique/Documents/ARQUIVOS/Projetos/2017/aplicativos/radicais_livres/app/react_native/android/app/src/main/AndroidManifest.xml:35:19-73
category#android.intent.category.DEFAULT
ADDED from /Users/paulohenrique/Documents/ARQUIVOS/Projetos/2017/aplicativos/radicais_livres/app/react_native/android/app/src/main/AndroidManifest.xml:36:11-70
	android:name
		ADDED from /Users/paulohenrique/Documents/ARQUIVOS/Projetos/2017/aplicativos/radicais_livres/app/react_native/android/app/src/main/AndroidManifest.xml:36:21-67
service#com.evollu.react.fcm.MessagingService
ADDED from /Users/paulohenrique/Documents/ARQUIVOS/Projetos/2017/aplicativos/radicais_livres/app/react_native/android/app/src/main/AndroidManifest.xml:40:7-44:17
	android:name
		ADDED from /Users/paulohenrique/Documents/ARQUIVOS/Projetos/2017/aplicativos/radicais_livres/app/react_native/android/app/src/main/AndroidManifest.xml:40:16-68
intent-filter#com.google.firebase.MESSAGING_EVENT
ADDED from /Users/paulohenrique/Documents/ARQUIVOS/Projetos/2017/aplicativos/radicais_livres/app/react_native/android/app/src/main/AndroidManifest.xml:41:9-43:25
action#com.google.firebase.MESSAGING_EVENT
ADDED from /Users/paulohenrique/Documents/ARQUIVOS/Projetos/2017/aplicativos/radicais_livres/app/react_native/android/app/src/main/AndroidManifest.xml:42:11-71
	android:name
		ADDED from /Users/paulohenrique/Documents/ARQUIVOS/Projetos/2017/aplicativos/radicais_livres/app/react_native/android/app/src/main/AndroidManifest.xml:42:19-69
service#com.evollu.react.fcm.InstanceIdService
ADDED from /Users/paulohenrique/Documents/ARQUIVOS/Projetos/2017/aplicativos/radicais_livres/app/react_native/android/app/src/main/AndroidManifest.xml:46:7-50:17
	android:exported
		ADDED from /Users/paulohenrique/Documents/ARQUIVOS/Projetos/2017/aplicativos/radicais_livres/app/react_native/android/app/src/main/AndroidManifest.xml:46:70-94
	android:name
		ADDED from /Users/paulohenrique/Documents/ARQUIVOS/Projetos/2017/aplicativos/radicais_livres/app/react_native/android/app/src/main/AndroidManifest.xml:46:16-69
intent-filter#com.google.firebase.INSTANCE_ID_EVENT
ADDED from /Users/paulohenrique/Documents/ARQUIVOS/Projetos/2017/aplicativos/radicais_livres/app/react_native/android/app/src/main/AndroidManifest.xml:47:9-49:25
action#com.google.firebase.INSTANCE_ID_EVENT
ADDED from /Users/paulohenrique/Documents/ARQUIVOS/Projetos/2017/aplicativos/radicais_livres/app/react_native/android/app/src/main/AndroidManifest.xml:48:11-73
	android:name
		ADDED from /Users/paulohenrique/Documents/ARQUIVOS/Projetos/2017/aplicativos/radicais_livres/app/react_native/android/app/src/main/AndroidManifest.xml:48:19-71
activity#com.radicaislivres.MainActivity
ADDED from /Users/paulohenrique/Documents/ARQUIVOS/Projetos/2017/aplicativos/radicais_livres/app/react_native/android/app/src/main/AndroidManifest.xml:52:7-69:18
	android:screenOrientation
		ADDED from /Users/paulohenrique/Documents/ARQUIVOS/Projetos/2017/aplicativos/radicais_livres/app/react_native/android/app/src/main/AndroidManifest.xml:56:9-45
	android:label
		ADDED from /Users/paulohenrique/Documents/ARQUIVOS/Projetos/2017/aplicativos/radicais_livres/app/react_native/android/app/src/main/AndroidManifest.xml:54:9-41
	android:launchMode
		ADDED from /Users/paulohenrique/Documents/ARQUIVOS/Projetos/2017/aplicativos/radicais_livres/app/react_native/android/app/src/main/AndroidManifest.xml:58:9-39
	android:windowSoftInputMode
		ADDED from /Users/paulohenrique/Documents/ARQUIVOS/Projetos/2017/aplicativos/radicais_livres/app/react_native/android/app/src/main/AndroidManifest.xml:57:9-51
	android:configChanges
		ADDED from /Users/paulohenrique/Documents/ARQUIVOS/Projetos/2017/aplicativos/radicais_livres/app/react_native/android/app/src/main/AndroidManifest.xml:55:9-79
	android:name
		ADDED from /Users/paulohenrique/Documents/ARQUIVOS/Projetos/2017/aplicativos/radicais_livres/app/react_native/android/app/src/main/AndroidManifest.xml:53:9-37
intent-filter#android.intent.action.DOWNLOAD_COMPLETE+android.intent.action.MAIN+android.intent.category.LAUNCHER
ADDED from /Users/paulohenrique/Documents/ARQUIVOS/Projetos/2017/aplicativos/radicais_livres/app/react_native/android/app/src/main/AndroidManifest.xml:60:9-64:25
action#android.intent.action.MAIN
ADDED from /Users/paulohenrique/Documents/ARQUIVOS/Projetos/2017/aplicativos/radicais_livres/app/react_native/android/app/src/main/AndroidManifest.xml:61:13-65
	android:name
		ADDED from /Users/paulohenrique/Documents/ARQUIVOS/Projetos/2017/aplicativos/radicais_livres/app/react_native/android/app/src/main/AndroidManifest.xml:61:21-62
category#android.intent.category.LAUNCHER
ADDED from /Users/paulohenrique/Documents/ARQUIVOS/Projetos/2017/aplicativos/radicais_livres/app/react_native/android/app/src/main/AndroidManifest.xml:62:13-73
	android:name
		ADDED from /Users/paulohenrique/Documents/ARQUIVOS/Projetos/2017/aplicativos/radicais_livres/app/react_native/android/app/src/main/AndroidManifest.xml:62:23-70
action#android.intent.action.DOWNLOAD_COMPLETE
ADDED from /Users/paulohenrique/Documents/ARQUIVOS/Projetos/2017/aplicativos/radicais_livres/app/react_native/android/app/src/main/AndroidManifest.xml:63:13-77
	android:name
		ADDED from /Users/paulohenrique/Documents/ARQUIVOS/Projetos/2017/aplicativos/radicais_livres/app/react_native/android/app/src/main/AndroidManifest.xml:63:21-75
intent-filter#android.intent.category.DEFAULT+fcm.ACTION.HELLO
ADDED from /Users/paulohenrique/Documents/ARQUIVOS/Projetos/2017/aplicativos/radicais_livres/app/react_native/android/app/src/main/AndroidManifest.xml:65:9-68:25
action#fcm.ACTION.HELLO
ADDED from /Users/paulohenrique/Documents/ARQUIVOS/Projetos/2017/aplicativos/radicais_livres/app/react_native/android/app/src/main/AndroidManifest.xml:66:13-55
	android:name
		ADDED from /Users/paulohenrique/Documents/ARQUIVOS/Projetos/2017/aplicativos/radicais_livres/app/react_native/android/app/src/main/AndroidManifest.xml:66:21-52
activity#com.facebook.FacebookActivity
ADDED from /Users/paulohenrique/Documents/ARQUIVOS/Projetos/2017/aplicativos/radicais_livres/app/react_native/android/app/src/main/AndroidManifest.xml:71:7-74:44
MERGED from [com.facebook.android:facebook-android-sdk:4.16.1] /Users/paulohenrique/Documents/ARQUIVOS/Projetos/2017/aplicativos/radicais_livres/app/react_native/android/app/build/intermediates/exploded-aar/com.facebook.android/facebook-android-sdk/4.16.1/AndroidManifest.xml:29:9-32:66
	android:label
		ADDED from /Users/paulohenrique/Documents/ARQUIVOS/Projetos/2017/aplicativos/radicais_livres/app/react_native/android/app/src/main/AndroidManifest.xml:74:9-41
	android:configChanges
		ADDED from /Users/paulohenrique/Documents/ARQUIVOS/Projetos/2017/aplicativos/radicais_livres/app/react_native/android/app/src/main/AndroidManifest.xml:72:9-109
	android:theme
		ADDED from [com.facebook.android:facebook-android-sdk:4.16.1] /Users/paulohenrique/Documents/ARQUIVOS/Projetos/2017/aplicativos/radicais_livres/app/react_native/android/app/build/intermediates/exploded-aar/com.facebook.android/facebook-android-sdk/4.16.1/AndroidManifest.xml:32:13-63
	android:name
		ADDED from /Users/paulohenrique/Documents/ARQUIVOS/Projetos/2017/aplicativos/radicais_livres/app/react_native/android/app/src/main/AndroidManifest.xml:71:17-61
activity#com.facebook.CustomTabActivity
ADDED from /Users/paulohenrique/Documents/ARQUIVOS/Projetos/2017/aplicativos/radicais_livres/app/react_native/android/app/src/main/AndroidManifest.xml:75:7-84:18
MERGED from [com.facebook.android:facebook-android-sdk:4.16.1] /Users/paulohenrique/Documents/ARQUIVOS/Projetos/2017/aplicativos/radicais_livres/app/react_native/android/app/build/intermediates/exploded-aar/com.facebook.android/facebook-android-sdk/4.16.1/AndroidManifest.xml:33:9-36:20
	android:exported
		ADDED from /Users/paulohenrique/Documents/ARQUIVOS/Projetos/2017/aplicativos/radicais_livres/app/react_native/android/app/src/main/AndroidManifest.xml:77:11-34
	android:name
		ADDED from /Users/paulohenrique/Documents/ARQUIVOS/Projetos/2017/aplicativos/radicais_livres/app/react_native/android/app/src/main/AndroidManifest.xml:76:11-56
intent-filter#android.intent.action.VIEW+android.intent.category.BROWSABLE+android.intent.category.DEFAULT
ADDED from /Users/paulohenrique/Documents/ARQUIVOS/Projetos/2017/aplicativos/radicais_livres/app/react_native/android/app/src/main/AndroidManifest.xml:78:11-83:27
action#android.intent.action.VIEW
ADDED from /Users/paulohenrique/Documents/ARQUIVOS/Projetos/2017/aplicativos/radicais_livres/app/react_native/android/app/src/main/AndroidManifest.xml:79:15-67
	android:name
		ADDED from /Users/paulohenrique/Documents/ARQUIVOS/Projetos/2017/aplicativos/radicais_livres/app/react_native/android/app/src/main/AndroidManifest.xml:79:23-64
category#android.intent.category.BROWSABLE
ADDED from /Users/paulohenrique/Documents/ARQUIVOS/Projetos/2017/aplicativos/radicais_livres/app/react_native/android/app/src/main/AndroidManifest.xml:81:15-76
	android:name
		ADDED from /Users/paulohenrique/Documents/ARQUIVOS/Projetos/2017/aplicativos/radicais_livres/app/react_native/android/app/src/main/AndroidManifest.xml:81:25-73
data
ADDED from /Users/paulohenrique/Documents/ARQUIVOS/Projetos/2017/aplicativos/radicais_livres/app/react_native/android/app/src/main/AndroidManifest.xml:82:15-73
	android:scheme
		ADDED from /Users/paulohenrique/Documents/ARQUIVOS/Projetos/2017/aplicativos/radicais_livres/app/react_native/android/app/src/main/AndroidManifest.xml:82:21-70
meta-data#com.facebook.sdk.ApplicationId
ADDED from /Users/paulohenrique/Documents/ARQUIVOS/Projetos/2017/aplicativos/radicais_livres/app/react_native/android/app/src/main/AndroidManifest.xml:87:7-89:50
	android:value
		ADDED from /Users/paulohenrique/Documents/ARQUIVOS/Projetos/2017/aplicativos/radicais_livres/app/react_native/android/app/src/main/AndroidManifest.xml:89:15-48
	android:name
		ADDED from /Users/paulohenrique/Documents/ARQUIVOS/Projetos/2017/aplicativos/radicais_livres/app/react_native/android/app/src/main/AndroidManifest.xml:88:15-60
meta-data#com.google.firebase.messaging.default_notification_icon
ADDED from /Users/paulohenrique/Documents/ARQUIVOS/Projetos/2017/aplicativos/radicais_livres/app/react_native/android/app/src/main/AndroidManifest.xml:91:7-93:54
	android:resource
		ADDED from /Users/paulohenrique/Documents/ARQUIVOS/Projetos/2017/aplicativos/radicais_livres/app/react_native/android/app/src/main/AndroidManifest.xml:93:9-51
	android:name
		ADDED from /Users/paulohenrique/Documents/ARQUIVOS/Projetos/2017/aplicativos/radicais_livres/app/react_native/android/app/src/main/AndroidManifest.xml:92:9-79
meta-data#com.google.firebase.messaging.default_notification_color
ADDED from /Users/paulohenrique/Documents/ARQUIVOS/Projetos/2017/aplicativos/radicais_livres/app/react_native/android/app/src/main/AndroidManifest.xml:95:7-97:45
	android:resource
		ADDED from /Users/paulohenrique/Documents/ARQUIVOS/Projetos/2017/aplicativos/radicais_livres/app/react_native/android/app/src/main/AndroidManifest.xml:97:5-42
	android:name
		ADDED from /Users/paulohenrique/Documents/ARQUIVOS/Projetos/2017/aplicativos/radicais_livres/app/react_native/android/app/src/main/AndroidManifest.xml:96:5-76
activity#com.facebook.react.devsupport.DevSettingsActivity
ADDED from /Users/paulohenrique/Documents/ARQUIVOS/Projetos/2017/aplicativos/radicais_livres/app/react_native/android/app/src/main/AndroidManifest.xml:99:5-82
	android:name
		ADDED from /Users/paulohenrique/Documents/ARQUIVOS/Projetos/2017/aplicativos/radicais_livres/app/react_native/android/app/src/main/AndroidManifest.xml:99:15-79
uses-feature#0x00020000
ADDED from [RadicaisLivres:RNGL:unspecified] /Users/paulohenrique/Documents/ARQUIVOS/Projetos/2017/aplicativos/radicais_livres/app/react_native/android/app/build/intermediates/exploded-aar/RadicaisLivres/RNGL/unspecified/AndroidManifest.xml:11:5-13:35
	android:glEsVersion
		ADDED from [RadicaisLivres:RNGL:unspecified] /Users/paulohenrique/Documents/ARQUIVOS/Projetos/2017/aplicativos/radicais_livres/app/react_native/android/app/build/intermediates/exploded-aar/RadicaisLivres/RNGL/unspecified/AndroidManifest.xml:12:9-41
	android:required
		ADDED from [RadicaisLivres:RNGL:unspecified] /Users/paulohenrique/Documents/ARQUIVOS/Projetos/2017/aplicativos/radicais_livres/app/react_native/android/app/build/intermediates/exploded-aar/RadicaisLivres/RNGL/unspecified/AndroidManifest.xml:13:9-32
uses-permission#android.permission.ACCESS_NETWORK_STATE
ADDED from [RadicaisLivres:RNGL:unspecified] /Users/paulohenrique/Documents/ARQUIVOS/Projetos/2017/aplicativos/radicais_livres/app/react_native/android/app/build/intermediates/exploded-aar/RadicaisLivres/RNGL/unspecified/AndroidManifest.xml:16:5-79
MERGED from [com.google.firebase:firebase-analytics:11.0.0] /Users/paulohenrique/Documents/ARQUIVOS/Projetos/2017/aplicativos/radicais_livres/app/react_native/android/app/build/intermediates/exploded-aar/com.google.firebase/firebase-analytics/11.0.0/AndroidManifest.xml:21:5-78
MERGED from [com.google.firebase:firebase-analytics-impl:11.0.0] /Users/paulohenrique/Documents/ARQUIVOS/Projetos/2017/aplicativos/radicais_livres/app/react_native/android/app/build/intermediates/exploded-aar/com.google.firebase/firebase-analytics-impl/11.0.0/AndroidManifest.xml:21:5-78
MERGED from [com.google.firebase:firebase-iid:11.0.0] /Users/paulohenrique/Documents/ARQUIVOS/Projetos/2017/aplicativos/radicais_livres/app/react_native/android/app/build/intermediates/exploded-aar/com.google.firebase/firebase-iid/11.0.0/AndroidManifest.xml:19:5-78
	android:name
		ADDED from [RadicaisLivres:RNGL:unspecified] /Users/paulohenrique/Documents/ARQUIVOS/Projetos/2017/aplicativos/radicais_livres/app/react_native/android/app/build/intermediates/exploded-aar/RadicaisLivres/RNGL/unspecified/AndroidManifest.xml:16:22-76
uses-permission#android.permission.ACCESS_FINE_LOCATION
ADDED from [RadicaisLivres:react-native-android-location-services-dialog-box:unspecified] /Users/paulohenrique/Documents/ARQUIVOS/Projetos/2017/aplicativos/radicais_livres/app/react_native/android/app/build/intermediates/exploded-aar/RadicaisLivres/react-native-android-location-services-dialog-box/unspecified/AndroidManifest.xml:9:5-79
	android:name
		ADDED from [RadicaisLivres:react-native-android-location-services-dialog-box:unspecified] /Users/paulohenrique/Documents/ARQUIVOS/Projetos/2017/aplicativos/radicais_livres/app/react_native/android/app/build/intermediates/exploded-aar/RadicaisLivres/react-native-android-location-services-dialog-box/unspecified/AndroidManifest.xml:9:22-76
activity#com.facebook.CustomTabMainActivity
ADDED from [com.facebook.android:facebook-android-sdk:4.16.1] /Users/paulohenrique/Documents/ARQUIVOS/Projetos/2017/aplicativos/radicais_livres/app/react_native/android/app/build/intermediates/exploded-aar/com.facebook.android/facebook-android-sdk/4.16.1/AndroidManifest.xml:37:9-71
	android:name
		ADDED from [com.facebook.android:facebook-android-sdk:4.16.1] /Users/paulohenrique/Documents/ARQUIVOS/Projetos/2017/aplicativos/radicais_livres/app/react_native/android/app/build/intermediates/exploded-aar/com.facebook.android/facebook-android-sdk/4.16.1/AndroidManifest.xml:37:19-68
uses-permission#com.google.android.c2dm.permission.RECEIVE
ADDED from [com.google.android.gms:play-services-gcm:11.0.0] /Users/paulohenrique/Documents/ARQUIVOS/Projetos/2017/aplicativos/radicais_livres/app/react_native/android/app/build/intermediates/exploded-aar/com.google.android.gms/play-services-gcm/11.0.0/AndroidManifest.xml:20:5-81
MERGED from [com.google.android.gms:play-services-iid:11.0.0] /Users/paulohenrique/Documents/ARQUIVOS/Projetos/2017/aplicativos/radicais_livres/app/react_native/android/app/build/intermediates/exploded-aar/com.google.android.gms/play-services-iid/11.0.0/AndroidManifest.xml:20:5-81
MERGED from [com.google.firebase:firebase-iid:11.0.0] /Users/paulohenrique/Documents/ARQUIVOS/Projetos/2017/aplicativos/radicais_livres/app/react_native/android/app/build/intermediates/exploded-aar/com.google.firebase/firebase-iid/11.0.0/AndroidManifest.xml:22:5-81
	android:name
		ADDED from [com.google.android.gms:play-services-gcm:11.0.0] /Users/paulohenrique/Documents/ARQUIVOS/Projetos/2017/aplicativos/radicais_livres/app/react_native/android/app/build/intermediates/exploded-aar/com.google.android.gms/play-services-gcm/11.0.0/AndroidManifest.xml:20:22-79
activity#com.google.android.gms.common.api.GoogleApiActivity
ADDED from [com.google.android.gms:play-services-base:11.0.0] /Users/paulohenrique/Documents/ARQUIVOS/Projetos/2017/aplicativos/radicais_livres/app/react_native/android/app/build/intermediates/exploded-aar/com.google.android.gms/play-services-base/11.0.0/AndroidManifest.xml:19:9-172
	android:exported
		ADDED from [com.google.android.gms:play-services-base:11.0.0] /Users/paulohenrique/Documents/ARQUIVOS/Projetos/2017/aplicativos/radicais_livres/app/react_native/android/app/build/intermediates/exploded-aar/com.google.android.gms/play-services-base/11.0.0/AndroidManifest.xml:19:146-170
	android:theme
		ADDED from [com.google.android.gms:play-services-base:11.0.0] /Users/paulohenrique/Documents/ARQUIVOS/Projetos/2017/aplicativos/radicais_livres/app/react_native/android/app/build/intermediates/exploded-aar/com.google.android.gms/play-services-base/11.0.0/AndroidManifest.xml:19:86-145
	android:name
		ADDED from [com.google.android.gms:play-services-base:11.0.0] /Users/paulohenrique/Documents/ARQUIVOS/Projetos/2017/aplicativos/radicais_livres/app/react_native/android/app/build/intermediates/exploded-aar/com.google.android.gms/play-services-base/11.0.0/AndroidManifest.xml:19:19-85
provider#android.support.v4.content.FileProvider
ADDED from [RadicaisLivres:react-native-image-picker:unspecified] /Users/paulohenrique/Documents/ARQUIVOS/Projetos/2017/aplicativos/radicais_livres/app/react_native/android/app/build/intermediates/exploded-aar/RadicaisLivres/react-native-image-picker/unspecified/AndroidManifest.xml:12:9-20:20
	android:authorities
		ADDED from [RadicaisLivres:react-native-image-picker:unspecified] /Users/paulohenrique/Documents/ARQUIVOS/Projetos/2017/aplicativos/radicais_livres/app/react_native/android/app/build/intermediates/exploded-aar/RadicaisLivres/react-native-image-picker/unspecified/AndroidManifest.xml:14:13-60
	android:grantUriPermissions
		ADDED from [RadicaisLivres:react-native-image-picker:unspecified] /Users/paulohenrique/Documents/ARQUIVOS/Projetos/2017/aplicativos/radicais_livres/app/react_native/android/app/build/intermediates/exploded-aar/RadicaisLivres/react-native-image-picker/unspecified/AndroidManifest.xml:16:13-47
	android:exported
		ADDED from [RadicaisLivres:react-native-image-picker:unspecified] /Users/paulohenrique/Documents/ARQUIVOS/Projetos/2017/aplicativos/radicais_livres/app/react_native/android/app/build/intermediates/exploded-aar/RadicaisLivres/react-native-image-picker/unspecified/AndroidManifest.xml:15:13-37
	android:name
		ADDED from [RadicaisLivres:react-native-image-picker:unspecified] /Users/paulohenrique/Documents/ARQUIVOS/Projetos/2017/aplicativos/radicais_livres/app/react_native/android/app/build/intermediates/exploded-aar/RadicaisLivres/react-native-image-picker/unspecified/AndroidManifest.xml:13:13-67
meta-data#android.support.FILE_PROVIDER_PATHS
ADDED from [RadicaisLivres:react-native-image-picker:unspecified] /Users/paulohenrique/Documents/ARQUIVOS/Projetos/2017/aplicativos/radicais_livres/app/react_native/android/app/build/intermediates/exploded-aar/RadicaisLivres/react-native-image-picker/unspecified/AndroidManifest.xml:17:13-19:58
	android:resource
		ADDED from [RadicaisLivres:react-native-image-picker:unspecified] /Users/paulohenrique/Documents/ARQUIVOS/Projetos/2017/aplicativos/radicais_livres/app/react_native/android/app/build/intermediates/exploded-aar/RadicaisLivres/react-native-image-picker/unspecified/AndroidManifest.xml:19:17-55
	android:name
		ADDED from [RadicaisLivres:react-native-image-picker:unspecified] /Users/paulohenrique/Documents/ARQUIVOS/Projetos/2017/aplicativos/radicais_livres/app/react_native/android/app/build/intermediates/exploded-aar/RadicaisLivres/react-native-image-picker/unspecified/AndroidManifest.xml:18:17-67
service#com.google.firebase.messaging.FirebaseMessagingService
ADDED from [com.google.firebase:firebase-messaging:11.0.0] /Users/paulohenrique/Documents/ARQUIVOS/Projetos/2017/aplicativos/radicais_livres/app/react_native/android/app/build/intermediates/exploded-aar/com.google.firebase/firebase-messaging/11.0.0/AndroidManifest.xml:23:9-27:19
	android:exported
		ADDED from [com.google.firebase:firebase-messaging:11.0.0] /Users/paulohenrique/Documents/ARQUIVOS/Projetos/2017/aplicativos/radicais_livres/app/react_native/android/app/build/intermediates/exploded-aar/com.google.firebase/firebase-messaging/11.0.0/AndroidManifest.xml:23:88-111
	android:name
		ADDED from [com.google.firebase:firebase-messaging:11.0.0] /Users/paulohenrique/Documents/ARQUIVOS/Projetos/2017/aplicativos/radicais_livres/app/react_native/android/app/build/intermediates/exploded-aar/com.google.firebase/firebase-messaging/11.0.0/AndroidManifest.xml:23:18-87
uses-permission#com.sec.android.provider.badge.permission.READ
ADDED from [me.leolin:ShortcutBadger:1.1.10] /Users/paulohenrique/Documents/ARQUIVOS/Projetos/2017/aplicativos/radicais_livres/app/react_native/android/app/build/intermediates/exploded-aar/me.leolin/ShortcutBadger/1.1.10/AndroidManifest.xml:19:5-86
	android:name
		ADDED from [me.leolin:ShortcutBadger:1.1.10] /Users/paulohenrique/Documents/ARQUIVOS/Projetos/2017/aplicativos/radicais_livres/app/react_native/android/app/build/intermediates/exploded-aar/me.leolin/ShortcutBadger/1.1.10/AndroidManifest.xml:19:22-83
uses-permission#com.sec.android.provider.badge.permission.WRITE
ADDED from [me.leolin:ShortcutBadger:1.1.10] /Users/paulohenrique/Documents/ARQUIVOS/Projetos/2017/aplicativos/radicais_livres/app/react_native/android/app/build/intermediates/exploded-aar/me.leolin/ShortcutBadger/1.1.10/AndroidManifest.xml:20:5-87
	android:name
		ADDED from [me.leolin:ShortcutBadger:1.1.10] /Users/paulohenrique/Documents/ARQUIVOS/Projetos/2017/aplicativos/radicais_livres/app/react_native/android/app/build/intermediates/exploded-aar/me.leolin/ShortcutBadger/1.1.10/AndroidManifest.xml:20:22-84
uses-permission#com.htc.launcher.permission.READ_SETTINGS
ADDED from [me.leolin:ShortcutBadger:1.1.10] /Users/paulohenrique/Documents/ARQUIVOS/Projetos/2017/aplicativos/radicais_livres/app/react_native/android/app/build/intermediates/exploded-aar/me.leolin/ShortcutBadger/1.1.10/AndroidManifest.xml:23:5-81
	android:name
		ADDED from [me.leolin:ShortcutBadger:1.1.10] /Users/paulohenrique/Documents/ARQUIVOS/Projetos/2017/aplicativos/radicais_livres/app/react_native/android/app/build/intermediates/exploded-aar/me.leolin/ShortcutBadger/1.1.10/AndroidManifest.xml:23:22-78
uses-permission#com.htc.launcher.permission.UPDATE_SHORTCUT
ADDED from [me.leolin:ShortcutBadger:1.1.10] /Users/paulohenrique/Documents/ARQUIVOS/Projetos/2017/aplicativos/radicais_livres/app/react_native/android/app/build/intermediates/exploded-aar/me.leolin/ShortcutBadger/1.1.10/AndroidManifest.xml:24:5-83
	android:name
		ADDED from [me.leolin:ShortcutBadger:1.1.10] /Users/paulohenrique/Documents/ARQUIVOS/Projetos/2017/aplicativos/radicais_livres/app/react_native/android/app/build/intermediates/exploded-aar/me.leolin/ShortcutBadger/1.1.10/AndroidManifest.xml:24:22-80
uses-permission#com.sonyericsson.home.permission.BROADCAST_BADGE
ADDED from [me.leolin:ShortcutBadger:1.1.10] /Users/paulohenrique/Documents/ARQUIVOS/Projetos/2017/aplicativos/radicais_livres/app/react_native/android/app/build/intermediates/exploded-aar/me.leolin/ShortcutBadger/1.1.10/AndroidManifest.xml:27:5-88
	android:name
		ADDED from [me.leolin:ShortcutBadger:1.1.10] /Users/paulohenrique/Documents/ARQUIVOS/Projetos/2017/aplicativos/radicais_livres/app/react_native/android/app/build/intermediates/exploded-aar/me.leolin/ShortcutBadger/1.1.10/AndroidManifest.xml:27:22-85
uses-permission#com.sonymobile.home.permission.PROVIDER_INSERT_BADGE
ADDED from [me.leolin:ShortcutBadger:1.1.10] /Users/paulohenrique/Documents/ARQUIVOS/Projetos/2017/aplicativos/radicais_livres/app/react_native/android/app/build/intermediates/exploded-aar/me.leolin/ShortcutBadger/1.1.10/AndroidManifest.xml:28:5-92
	android:name
		ADDED from [me.leolin:ShortcutBadger:1.1.10] /Users/paulohenrique/Documents/ARQUIVOS/Projetos/2017/aplicativos/radicais_livres/app/react_native/android/app/build/intermediates/exploded-aar/me.leolin/ShortcutBadger/1.1.10/AndroidManifest.xml:28:22-89
uses-permission#com.anddoes.launcher.permission.UPDATE_COUNT
ADDED from [me.leolin:ShortcutBadger:1.1.10] /Users/paulohenrique/Documents/ARQUIVOS/Projetos/2017/aplicativos/radicais_livres/app/react_native/android/app/build/intermediates/exploded-aar/me.leolin/ShortcutBadger/1.1.10/AndroidManifest.xml:31:5-84
	android:name
		ADDED from [me.leolin:ShortcutBadger:1.1.10] /Users/paulohenrique/Documents/ARQUIVOS/Projetos/2017/aplicativos/radicais_livres/app/react_native/android/app/build/intermediates/exploded-aar/me.leolin/ShortcutBadger/1.1.10/AndroidManifest.xml:31:22-81
uses-permission#com.majeur.launcher.permission.UPDATE_BADGE
ADDED from [me.leolin:ShortcutBadger:1.1.10] /Users/paulohenrique/Documents/ARQUIVOS/Projetos/2017/aplicativos/radicais_livres/app/react_native/android/app/build/intermediates/exploded-aar/me.leolin/ShortcutBadger/1.1.10/AndroidManifest.xml:34:5-83
	android:name
		ADDED from [me.leolin:ShortcutBadger:1.1.10] /Users/paulohenrique/Documents/ARQUIVOS/Projetos/2017/aplicativos/radicais_livres/app/react_native/android/app/build/intermediates/exploded-aar/me.leolin/ShortcutBadger/1.1.10/AndroidManifest.xml:34:22-80
uses-permission#com.huawei.android.launcher.permission.CHANGE_BADGE
ADDED from [me.leolin:ShortcutBadger:1.1.10] /Users/paulohenrique/Documents/ARQUIVOS/Projetos/2017/aplicativos/radicais_livres/app/react_native/android/app/build/intermediates/exploded-aar/me.leolin/ShortcutBadger/1.1.10/AndroidManifest.xml:37:5-91
	android:name
		ADDED from [me.leolin:ShortcutBadger:1.1.10] /Users/paulohenrique/Documents/ARQUIVOS/Projetos/2017/aplicativos/radicais_livres/app/react_native/android/app/build/intermediates/exploded-aar/me.leolin/ShortcutBadger/1.1.10/AndroidManifest.xml:37:22-88
uses-permission#com.huawei.android.launcher.permission.READ_SETTINGS
ADDED from [me.leolin:ShortcutBadger:1.1.10] /Users/paulohenrique/Documents/ARQUIVOS/Projetos/2017/aplicativos/radicais_livres/app/react_native/android/app/build/intermediates/exploded-aar/me.leolin/ShortcutBadger/1.1.10/AndroidManifest.xml:38:5-92
	android:name
		ADDED from [me.leolin:ShortcutBadger:1.1.10] /Users/paulohenrique/Documents/ARQUIVOS/Projetos/2017/aplicativos/radicais_livres/app/react_native/android/app/build/intermediates/exploded-aar/me.leolin/ShortcutBadger/1.1.10/AndroidManifest.xml:38:22-89
uses-permission#com.huawei.android.launcher.permission.WRITE_SETTINGS
ADDED from [me.leolin:ShortcutBadger:1.1.10] /Users/paulohenrique/Documents/ARQUIVOS/Projetos/2017/aplicativos/radicais_livres/app/react_native/android/app/build/intermediates/exploded-aar/me.leolin/ShortcutBadger/1.1.10/AndroidManifest.xml:39:5-93
	android:name
		ADDED from [me.leolin:ShortcutBadger:1.1.10] /Users/paulohenrique/Documents/ARQUIVOS/Projetos/2017/aplicativos/radicais_livres/app/react_native/android/app/build/intermediates/exploded-aar/me.leolin/ShortcutBadger/1.1.10/AndroidManifest.xml:39:22-90
uses-permission#android.permission.READ_APP_BADGE
ADDED from [me.leolin:ShortcutBadger:1.1.10] /Users/paulohenrique/Documents/ARQUIVOS/Projetos/2017/aplicativos/radicais_livres/app/react_native/android/app/build/intermediates/exploded-aar/me.leolin/ShortcutBadger/1.1.10/AndroidManifest.xml:42:5-73
	android:name
		ADDED from [me.leolin:ShortcutBadger:1.1.10] /Users/paulohenrique/Documents/ARQUIVOS/Projetos/2017/aplicativos/radicais_livres/app/react_native/android/app/build/intermediates/exploded-aar/me.leolin/ShortcutBadger/1.1.10/AndroidManifest.xml:42:22-70
uses-permission#android.permission.WAKE_LOCK
ADDED from [com.google.firebase:firebase-analytics:11.0.0] /Users/paulohenrique/Documents/ARQUIVOS/Projetos/2017/aplicativos/radicais_livres/app/react_native/android/app/build/intermediates/exploded-aar/com.google.firebase/firebase-analytics/11.0.0/AndroidManifest.xml:22:5-67
MERGED from [com.google.firebase:firebase-analytics-impl:11.0.0] /Users/paulohenrique/Documents/ARQUIVOS/Projetos/2017/aplicativos/radicais_livres/app/react_native/android/app/build/intermediates/exploded-aar/com.google.firebase/firebase-analytics-impl/11.0.0/AndroidManifest.xml:22:5-67
MERGED from [com.google.firebase:firebase-iid:11.0.0] /Users/paulohenrique/Documents/ARQUIVOS/Projetos/2017/aplicativos/radicais_livres/app/react_native/android/app/build/intermediates/exploded-aar/com.google.firebase/firebase-iid/11.0.0/AndroidManifest.xml:21:5-67
	android:name
		ADDED from [com.google.firebase:firebase-analytics:11.0.0] /Users/paulohenrique/Documents/ARQUIVOS/Projetos/2017/aplicativos/radicais_livres/app/react_native/android/app/build/intermediates/exploded-aar/com.google.firebase/firebase-analytics/11.0.0/AndroidManifest.xml:22:22-65
receiver#com.google.android.gms.measurement.AppMeasurementReceiver
ADDED from [com.google.firebase:firebase-analytics:11.0.0] /Users/paulohenrique/Documents/ARQUIVOS/Projetos/2017/aplicativos/radicais_livres/app/react_native/android/app/build/intermediates/exploded-aar/com.google.firebase/firebase-analytics/11.0.0/AndroidManifest.xml:25:7-26:18
MERGED from [com.google.firebase:firebase-analytics-impl:11.0.0] /Users/paulohenrique/Documents/ARQUIVOS/Projetos/2017/aplicativos/radicais_livres/app/react_native/android/app/build/intermediates/exploded-aar/com.google.firebase/firebase-analytics-impl/11.0.0/AndroidManifest.xml:25:7-26:18
	android:enabled
		ADDED from [com.google.firebase:firebase-analytics:11.0.0] /Users/paulohenrique/Documents/ARQUIVOS/Projetos/2017/aplicativos/radicais_livres/app/react_native/android/app/build/intermediates/exploded-aar/com.google.firebase/firebase-analytics/11.0.0/AndroidManifest.xml:25:90-112
	android:exported
		ADDED from [com.google.firebase:firebase-analytics:11.0.0] /Users/paulohenrique/Documents/ARQUIVOS/Projetos/2017/aplicativos/radicais_livres/app/react_native/android/app/build/intermediates/exploded-aar/com.google.firebase/firebase-analytics/11.0.0/AndroidManifest.xml:25:113-137
	android:name
		ADDED from [com.google.firebase:firebase-analytics:11.0.0] /Users/paulohenrique/Documents/ARQUIVOS/Projetos/2017/aplicativos/radicais_livres/app/react_native/android/app/build/intermediates/exploded-aar/com.google.firebase/firebase-analytics/11.0.0/AndroidManifest.xml:25:17-89
receiver#com.google.android.gms.measurement.AppMeasurementInstallReferrerReceiver
ADDED from [com.google.firebase:firebase-analytics:11.0.0] /Users/paulohenrique/Documents/ARQUIVOS/Projetos/2017/aplicativos/radicais_livres/app/react_native/android/app/build/intermediates/exploded-aar/com.google.firebase/firebase-analytics/11.0.0/AndroidManifest.xml:27:7-31:18
	android:enabled
		ADDED from [com.google.firebase:firebase-analytics:11.0.0] /Users/paulohenrique/Documents/ARQUIVOS/Projetos/2017/aplicativos/radicais_livres/app/react_native/android/app/build/intermediates/exploded-aar/com.google.firebase/firebase-analytics/11.0.0/AndroidManifest.xml:27:162-184
	android:exported
		ADDED from [com.google.firebase:firebase-analytics:11.0.0] /Users/paulohenrique/Documents/ARQUIVOS/Projetos/2017/aplicativos/radicais_livres/app/react_native/android/app/build/intermediates/exploded-aar/com.google.firebase/firebase-analytics/11.0.0/AndroidManifest.xml:27:185-208
	android:permission
		ADDED from [com.google.firebase:firebase-analytics:11.0.0] /Users/paulohenrique/Documents/ARQUIVOS/Projetos/2017/aplicativos/radicais_livres/app/react_native/android/app/build/intermediates/exploded-aar/com.google.firebase/firebase-analytics/11.0.0/AndroidManifest.xml:27:105-161
	android:name
		ADDED from [com.google.firebase:firebase-analytics:11.0.0] /Users/paulohenrique/Documents/ARQUIVOS/Projetos/2017/aplicativos/radicais_livres/app/react_native/android/app/build/intermediates/exploded-aar/com.google.firebase/firebase-analytics/11.0.0/AndroidManifest.xml:27:17-104
intent-filter#com.android.vending.INSTALL_REFERRER
ADDED from [com.google.firebase:firebase-analytics:11.0.0] /Users/paulohenrique/Documents/ARQUIVOS/Projetos/2017/aplicativos/radicais_livres/app/react_native/android/app/build/intermediates/exploded-aar/com.google.firebase/firebase-analytics/11.0.0/AndroidManifest.xml:28:11-30:27
action#com.android.vending.INSTALL_REFERRER
ADDED from [com.google.firebase:firebase-analytics:11.0.0] /Users/paulohenrique/Documents/ARQUIVOS/Projetos/2017/aplicativos/radicais_livres/app/react_native/android/app/build/intermediates/exploded-aar/com.google.firebase/firebase-analytics/11.0.0/AndroidManifest.xml:29:15-76
	android:name
		ADDED from [com.google.firebase:firebase-analytics:11.0.0] /Users/paulohenrique/Documents/ARQUIVOS/Projetos/2017/aplicativos/radicais_livres/app/react_native/android/app/build/intermediates/exploded-aar/com.google.firebase/firebase-analytics/11.0.0/AndroidManifest.xml:29:23-74
service#com.google.android.gms.measurement.AppMeasurementService
ADDED from [com.google.firebase:firebase-analytics:11.0.0] /Users/paulohenrique/Documents/ARQUIVOS/Projetos/2017/aplicativos/radicais_livres/app/react_native/android/app/build/intermediates/exploded-aar/com.google.firebase/firebase-analytics/11.0.0/AndroidManifest.xml:32:7-137
MERGED from [com.google.firebase:firebase-analytics-impl:11.0.0] /Users/paulohenrique/Documents/ARQUIVOS/Projetos/2017/aplicativos/radicais_livres/app/react_native/android/app/build/intermediates/exploded-aar/com.google.firebase/firebase-analytics-impl/11.0.0/AndroidManifest.xml:27:7-137
	android:enabled
		ADDED from [com.google.firebase:firebase-analytics:11.0.0] /Users/paulohenrique/Documents/ARQUIVOS/Projetos/2017/aplicativos/radicais_livres/app/react_native/android/app/build/intermediates/exploded-aar/com.google.firebase/firebase-analytics/11.0.0/AndroidManifest.xml:32:88-110
	android:exported
		ADDED from [com.google.firebase:firebase-analytics:11.0.0] /Users/paulohenrique/Documents/ARQUIVOS/Projetos/2017/aplicativos/radicais_livres/app/react_native/android/app/build/intermediates/exploded-aar/com.google.firebase/firebase-analytics/11.0.0/AndroidManifest.xml:32:111-135
	android:name
		ADDED from [com.google.firebase:firebase-analytics:11.0.0] /Users/paulohenrique/Documents/ARQUIVOS/Projetos/2017/aplicativos/radicais_livres/app/react_native/android/app/build/intermediates/exploded-aar/com.google.firebase/firebase-analytics/11.0.0/AndroidManifest.xml:32:16-87
service#com.google.android.gms.measurement.AppMeasurementJobService
ADDED from [com.google.firebase:firebase-analytics:11.0.0] /Users/paulohenrique/Documents/ARQUIVOS/Projetos/2017/aplicativos/radicais_livres/app/react_native/android/app/build/intermediates/exploded-aar/com.google.firebase/firebase-analytics/11.0.0/AndroidManifest.xml:33:7-197
	android:enabled
		ADDED from [com.google.firebase:firebase-analytics:11.0.0] /Users/paulohenrique/Documents/ARQUIVOS/Projetos/2017/aplicativos/radicais_livres/app/react_native/android/app/build/intermediates/exploded-aar/com.google.firebase/firebase-analytics/11.0.0/AndroidManifest.xml:33:148-170
	android:exported
		ADDED from [com.google.firebase:firebase-analytics:11.0.0] /Users/paulohenrique/Documents/ARQUIVOS/Projetos/2017/aplicativos/radicais_livres/app/react_native/android/app/build/intermediates/exploded-aar/com.google.firebase/firebase-analytics/11.0.0/AndroidManifest.xml:33:171-195
	android:permission
		ADDED from [com.google.firebase:firebase-analytics:11.0.0] /Users/paulohenrique/Documents/ARQUIVOS/Projetos/2017/aplicativos/radicais_livres/app/react_native/android/app/build/intermediates/exploded-aar/com.google.firebase/firebase-analytics/11.0.0/AndroidManifest.xml:33:91-147
	android:name
		ADDED from [com.google.firebase:firebase-analytics:11.0.0] /Users/paulohenrique/Documents/ARQUIVOS/Projetos/2017/aplicativos/radicais_livres/app/react_native/android/app/build/intermediates/exploded-aar/com.google.firebase/firebase-analytics/11.0.0/AndroidManifest.xml:33:16-90
permission#${applicationId}.permission.C2D_MESSAGE
ADDED from [com.google.firebase:firebase-iid:11.0.0] /Users/paulohenrique/Documents/ARQUIVOS/Projetos/2017/aplicativos/radicais_livres/app/react_native/android/app/build/intermediates/exploded-aar/com.google.firebase/firebase-iid/11.0.0/AndroidManifest.xml:24:5-109
	android:protectionLevel
		ADDED from [com.google.firebase:firebase-iid:11.0.0] /Users/paulohenrique/Documents/ARQUIVOS/Projetos/2017/aplicativos/radicais_livres/app/react_native/android/app/build/intermediates/exploded-aar/com.google.firebase/firebase-iid/11.0.0/AndroidManifest.xml:24:72-107
	android:name
		ADDED from [com.google.firebase:firebase-iid:11.0.0] /Users/paulohenrique/Documents/ARQUIVOS/Projetos/2017/aplicativos/radicais_livres/app/react_native/android/app/build/intermediates/exploded-aar/com.google.firebase/firebase-iid/11.0.0/AndroidManifest.xml:24:17-71
uses-permission#${applicationId}.permission.C2D_MESSAGE
ADDED from [com.google.firebase:firebase-iid:11.0.0] /Users/paulohenrique/Documents/ARQUIVOS/Projetos/2017/aplicativos/radicais_livres/app/react_native/android/app/build/intermediates/exploded-aar/com.google.firebase/firebase-iid/11.0.0/AndroidManifest.xml:26:5-78
	android:name
		ADDED from [com.google.firebase:firebase-iid:11.0.0] /Users/paulohenrique/Documents/ARQUIVOS/Projetos/2017/aplicativos/radicais_livres/app/react_native/android/app/build/intermediates/exploded-aar/com.google.firebase/firebase-iid/11.0.0/AndroidManifest.xml:26:22-76
receiver#com.google.firebase.iid.FirebaseInstanceIdReceiver
ADDED from [com.google.firebase:firebase-iid:11.0.0] /Users/paulohenrique/Documents/ARQUIVOS/Projetos/2017/aplicativos/radicais_livres/app/react_native/android/app/build/intermediates/exploded-aar/com.google.firebase/firebase-iid/11.0.0/AndroidManifest.xml:30:9-35:20
	android:exported
		ADDED from [com.google.firebase:firebase-iid:11.0.0] /Users/paulohenrique/Documents/ARQUIVOS/Projetos/2017/aplicativos/radicais_livres/app/react_native/android/app/build/intermediates/exploded-aar/com.google.firebase/firebase-iid/11.0.0/AndroidManifest.xml:30:85-108
	android:permission
		ADDED from [com.google.firebase:firebase-iid:11.0.0] /Users/paulohenrique/Documents/ARQUIVOS/Projetos/2017/aplicativos/radicais_livres/app/react_native/android/app/build/intermediates/exploded-aar/com.google.firebase/firebase-iid/11.0.0/AndroidManifest.xml:30:109-169
	android:name
		ADDED from [com.google.firebase:firebase-iid:11.0.0] /Users/paulohenrique/Documents/ARQUIVOS/Projetos/2017/aplicativos/radicais_livres/app/react_native/android/app/build/intermediates/exploded-aar/com.google.firebase/firebase-iid/11.0.0/AndroidManifest.xml:30:19-84
intent-filter#${applicationId}+com.google.android.c2dm.intent.RECEIVE
ADDED from [com.google.firebase:firebase-iid:11.0.0] /Users/paulohenrique/Documents/ARQUIVOS/Projetos/2017/aplicativos/radicais_livres/app/react_native/android/app/build/intermediates/exploded-aar/com.google.firebase/firebase-iid/11.0.0/AndroidManifest.xml:31:13-34:29
action#com.google.android.c2dm.intent.RECEIVE
ADDED from [com.google.firebase:firebase-iid:11.0.0] /Users/paulohenrique/Documents/ARQUIVOS/Projetos/2017/aplicativos/radicais_livres/app/react_native/android/app/build/intermediates/exploded-aar/com.google.firebase/firebase-iid/11.0.0/AndroidManifest.xml:32:17-80
	android:name
		ADDED from [com.google.firebase:firebase-iid:11.0.0] /Users/paulohenrique/Documents/ARQUIVOS/Projetos/2017/aplicativos/radicais_livres/app/react_native/android/app/build/intermediates/exploded-aar/com.google.firebase/firebase-iid/11.0.0/AndroidManifest.xml:32:25-78
category#${applicationId}
ADDED from [com.google.firebase:firebase-iid:11.0.0] /Users/paulohenrique/Documents/ARQUIVOS/Projetos/2017/aplicativos/radicais_livres/app/react_native/android/app/build/intermediates/exploded-aar/com.google.firebase/firebase-iid/11.0.0/AndroidManifest.xml:33:17-60
	android:name
		ADDED from [com.google.firebase:firebase-iid:11.0.0] /Users/paulohenrique/Documents/ARQUIVOS/Projetos/2017/aplicativos/radicais_livres/app/react_native/android/app/build/intermediates/exploded-aar/com.google.firebase/firebase-iid/11.0.0/AndroidManifest.xml:33:27-58
receiver#com.google.firebase.iid.FirebaseInstanceIdInternalReceiver
ADDED from [com.google.firebase:firebase-iid:11.0.0] /Users/paulohenrique/Documents/ARQUIVOS/Projetos/2017/aplicativos/radicais_livres/app/react_native/android/app/build/intermediates/exploded-aar/com.google.firebase/firebase-iid/11.0.0/AndroidManifest.xml:39:9-119
	android:exported
		ADDED from [com.google.firebase:firebase-iid:11.0.0] /Users/paulohenrique/Documents/ARQUIVOS/Projetos/2017/aplicativos/radicais_livres/app/react_native/android/app/build/intermediates/exploded-aar/com.google.firebase/firebase-iid/11.0.0/AndroidManifest.xml:39:93-117
	android:name
		ADDED from [com.google.firebase:firebase-iid:11.0.0] /Users/paulohenrique/Documents/ARQUIVOS/Projetos/2017/aplicativos/radicais_livres/app/react_native/android/app/build/intermediates/exploded-aar/com.google.firebase/firebase-iid/11.0.0/AndroidManifest.xml:39:19-92
service#com.google.firebase.iid.FirebaseInstanceIdService
ADDED from [com.google.firebase:firebase-iid:11.0.0] /Users/paulohenrique/Documents/ARQUIVOS/Projetos/2017/aplicativos/radicais_livres/app/react_native/android/app/build/intermediates/exploded-aar/com.google.firebase/firebase-iid/11.0.0/AndroidManifest.xml:43:9-47:19
	android:exported
		ADDED from [com.google.firebase:firebase-iid:11.0.0] /Users/paulohenrique/Documents/ARQUIVOS/Projetos/2017/aplicativos/radicais_livres/app/react_native/android/app/build/intermediates/exploded-aar/com.google.firebase/firebase-iid/11.0.0/AndroidManifest.xml:43:83-106
	android:name
		ADDED from [com.google.firebase:firebase-iid:11.0.0] /Users/paulohenrique/Documents/ARQUIVOS/Projetos/2017/aplicativos/radicais_livres/app/react_native/android/app/build/intermediates/exploded-aar/com.google.firebase/firebase-iid/11.0.0/AndroidManifest.xml:43:18-82
provider#com.google.firebase.provider.FirebaseInitProvider
ADDED from [com.google.firebase:firebase-common:11.0.0] /Users/paulohenrique/Documents/ARQUIVOS/Projetos/2017/aplicativos/radicais_livres/app/react_native/android/app/build/intermediates/exploded-aar/com.google.firebase/firebase-common/11.0.0/AndroidManifest.xml:6:9-194
	android:authorities
		ADDED from [com.google.firebase:firebase-common:11.0.0] /Users/paulohenrique/Documents/ARQUIVOS/Projetos/2017/aplicativos/radicais_livres/app/react_native/android/app/build/intermediates/exploded-aar/com.google.firebase/firebase-common/11.0.0/AndroidManifest.xml:6:19-78
	android:exported
		ADDED from [com.google.firebase:firebase-common:11.0.0] /Users/paulohenrique/Documents/ARQUIVOS/Projetos/2017/aplicativos/radicais_livres/app/react_native/android/app/build/intermediates/exploded-aar/com.google.firebase/firebase-common/11.0.0/AndroidManifest.xml:6:144-168
	android:initOrder
		ADDED from [com.google.firebase:firebase-common:11.0.0] /Users/paulohenrique/Documents/ARQUIVOS/Projetos/2017/aplicativos/radicais_livres/app/react_native/android/app/build/intermediates/exploded-aar/com.google.firebase/firebase-common/11.0.0/AndroidManifest.xml:6:169-192
	android:name
		ADDED from [com.google.firebase:firebase-common:11.0.0] /Users/paulohenrique/Documents/ARQUIVOS/Projetos/2017/aplicativos/radicais_livres/app/react_native/android/app/build/intermediates/exploded-aar/com.google.firebase/firebase-common/11.0.0/AndroidManifest.xml:6:79-143
meta-data#com.google.android.gms.version
ADDED from [com.google.android.gms:play-services-basement:11.0.0] /Users/paulohenrique/Documents/ARQUIVOS/Projetos/2017/aplicativos/radicais_livres/app/react_native/android/app/build/intermediates/exploded-aar/com.google.android.gms/play-services-basement/11.0.0/AndroidManifest.xml:20:9-121
	android:value
		ADDED from [com.google.android.gms:play-services-basement:11.0.0] /Users/paulohenrique/Documents/ARQUIVOS/Projetos/2017/aplicativos/radicais_livres/app/react_native/android/app/build/intermediates/exploded-aar/com.google.android.gms/play-services-basement/11.0.0/AndroidManifest.xml:20:66-119
	android:name
		ADDED from [com.google.android.gms:play-services-basement:11.0.0] /Users/paulohenrique/Documents/ARQUIVOS/Projetos/2017/aplicativos/radicais_livres/app/react_native/android/app/build/intermediates/exploded-aar/com.google.android.gms/play-services-basement/11.0.0/AndroidManifest.xml:20:20-65
android:uses-permission#android.permission.READ_PHONE_STATE
IMPLIED from /Users/paulohenrique/Documents/ARQUIVOS/Projetos/2017/aplicativos/radicais_livres/app/react_native/android/app/src/main/AndroidManifest.xml:1:1-102:12 reason: org.webkit.android_jsc has a targetSdkVersion < 4
