Servidor rodando na porta 49155...
SELECT SUM(total) as total FROM (SELECT cadastro_id_amizade, count(cadastro_id) as total FROM sd_perfil.sd_mensagem WHERE cadastro_id = 195 AND st = 0 GROUP BY cadastro_id_amizade) as custom 
SELECT SUM(total) as total FROM (SELECT cadastro_id_amizade, count(cadastro_id) as total FROM sd_perfil.sd_notificacao WHERE cadastro_id = 195 AND st = 0 GROUP BY cadastro_id_amizade) as custom 
